{
    "KPlugin": {
        "Authors": [
            {
                "Email": "lukas@kde.org",
                "Name": "Lukáš Tinkl",
                "Name[ar]": "Lukáš Tinkl",
                "Name[az]": "Lukáš Tinkl",
                "Name[bg]": "Lukáš Tinkl",
                "Name[ca@valencia]": "Lukáš Tinkl",
                "Name[ca]": "Lukáš Tinkl",
                "Name[cs]": "Lukáš Tinkl",
                "Name[de]": "Lukáš Tinkl",
                "Name[en_GB]": "Lukáš Tinkl",
                "Name[es]": "Lukáš Tinkl",
                "Name[eu]": "Lukáš Tinkl",
                "Name[fi]": "Lukáš Tinkl",
                "Name[fr]": "Lukáš Tinkl",
                "Name[gl]": "Lukáš Tinkl",
                "Name[hu]": "Lukáš Tinkl",
                "Name[ia]": "Lukáš Tinkl",
                "Name[is]": "Lukáš Tinkl",
                "Name[it]": "Lukáš Tinkl",
                "Name[ka]": "Lukáš Tinkl",
                "Name[ko]": "Lukáš Tinkl",
                "Name[lt]": "Lukáš Tinkl",
                "Name[nl]": "Lukáš Tinkl",
                "Name[nn]": "Lukáš Tinkl",
                "Name[pl]": "Lukáš Tinkl",
                "Name[pt]": "Lukáš Tinkl",
                "Name[pt_BR]": "Lukáš Tinkl",
                "Name[ro]": "Lukáš Tinkl",
                "Name[ru]": "Lukáš Tinkl",
                "Name[sk]": "Lukáš Tinkl",
                "Name[sl]": "Lukáš Tinkl",
                "Name[sv]": "Lukáš Tinkl",
                "Name[ta]": "லூக்காஸ் டிங்க்குள்",
                "Name[tr]": "Lukáš Tinkl",
                "Name[uk]": "Lukáš Tinkl",
                "Name[x-test]": "xxLukáš Tinklxx",
                "Name[zh_CN]": "Lukáš Tinkl",
                "Name[zh_TW]": "Lukáš Tinkl"
            }
        ],
        "Category": "VPNService",
        "Description": "Compatible with the OpenVPN server",
        "Description[ar]": "متوافق مع خادوم OpenVPN",
        "Description[az]": "OpenVPN serveri ilə uyğun",
        "Description[bg]": "Съвместим с OpenVPN сървъра",
        "Description[ca@valencia]": "Compatible amb el servidor OpenVPN",
        "Description[ca]": "Compatible amb el servidor OpenVPN",
        "Description[cs]": "Kompatibilní se serverem OpenVPN",
        "Description[de]": "Mit dem OpenVPN-Server kompatibel",
        "Description[en_GB]": "Compatible with the OpenVPN server",
        "Description[es]": "Compatible con el servidor de OpenVPN",
        "Description[eu]": "OpenVPN zerbitzariarekin bateragarria",
        "Description[fi]": "Yhteensopiva OpenVPN-palvelimen kanssa",
        "Description[fr]": "Compatible avec le serveur « OpenVPN »",
        "Description[gl]": "Compatíbel con servidores OpenVPN.",
        "Description[hu]": "Kompatibilis az OpenVPN kiszolgálóval",
        "Description[ia]": "Compatibile con le servitor OpenVPN",
        "Description[is]": "Samhæft við OpenVPN netþjón",
        "Description[it]": "Compatibile con il server OpenVPN",
        "Description[ka]": "OpenVPN სერვერთან თავსებადი",
        "Description[ko]": "OpenVPN 서버와 호환됨",
        "Description[lt]": "Suderinamas su OpenVPN serveriu",
        "Description[nl]": "Compatibel met de OpenVPN-server",
        "Description[nn]": "Kompatibel med OpenVPN-tenaren",
        "Description[pl]": "Zgodny z serwerem OpenVPN",
        "Description[pt]": "Compatível com o servidor OpenVPN",
        "Description[pt_BR]": "Compatível com o servidor OpenVPN",
        "Description[ru]": "Совместимая с сервером OpenVPN",
        "Description[sk]": "Kompatibilné so serverom OpenVPN",
        "Description[sl]": "Združljiv s strežnikom OpenVPN",
        "Description[sv]": "Kompatibel med OpenVPN-server",
        "Description[tr]": "OpenVPN sunucusuyla uyumlu",
        "Description[uk]": "Сумісний із сервером OpenVPN",
        "Description[x-test]": "xxCompatible with the OpenVPN serverxx",
        "Description[zh_CN]": "兼容 OpenVPN 服务器",
        "Description[zh_TW]": "與 OpenVPN 伺服器相容",
        "EnabledByDefault": false,
        "Icon": "",
        "Id": "plasmanetworkmanagement_openvpnui",
        "License": "GPL",
        "Name": "OpenVPN",
        "Name[ar]": "اوبن في بي ان",
        "Name[az]": "OpenVPN",
        "Name[bg]": "OpenVPN",
        "Name[bs]": "OpenVPN",
        "Name[ca@valencia]": "OpenVPN",
        "Name[ca]": "OpenVPN",
        "Name[cs]": "OpenVPN",
        "Name[da]": "OpenVPN",
        "Name[de]": "OpenVPN",
        "Name[el]": "OpenVPN",
        "Name[en_GB]": "OpenVPN",
        "Name[es]": "OpenVPN",
        "Name[et]": "OpenVPN",
        "Name[eu]": "OpenVPN",
        "Name[fi]": "OpenVPN",
        "Name[fr]": "OpenVPN",
        "Name[gl]": "OpenVPN",
        "Name[he]": "OpenVPN",
        "Name[hsb]": "OpenVPN",
        "Name[hu]": "OpenVPN",
        "Name[ia]": "OpenVPN",
        "Name[id]": "OpenVPN",
        "Name[is]": "OpenVPN",
        "Name[it]": "OpenVPN",
        "Name[ja]": "OpenVPN",
        "Name[ka]": "OpenVPN",
        "Name[ko]": "OpenVPN",
        "Name[lt]": "OpenVPN",
        "Name[nb]": "OpenVPN",
        "Name[nds]": "OpenVPN",
        "Name[nl]": "OpenVPN",
        "Name[nn]": "OpenVPN",
        "Name[pa]": "OpenVPN",
        "Name[pl]": "OpenVPN",
        "Name[pt]": "OpenVPN",
        "Name[pt_BR]": "OpenVPN",
        "Name[ro]": "OpenVPN",
        "Name[ru]": "OpenVPN",
        "Name[sk]": "OpenVPN",
        "Name[sl]": "OpenVPN",
        "Name[sr@ijekavian]": "ОпенВПН",
        "Name[sr@ijekavianlatin]": "OpenVPN",
        "Name[sr@latin]": "OpenVPN",
        "Name[sr]": "ОпенВПН",
        "Name[sv]": "OpenVPN",
        "Name[tr]": "OpenVPN",
        "Name[ug]": "OpenVPN",
        "Name[uk]": "OpenVPN",
        "Name[x-test]": "xxOpenVPNxx",
        "Name[zh_CN]": "OpenVPN",
        "Name[zh_TW]": "OpenVPN",
        "Version": "0.1",
        "Website": ""
    },
    "X-NetworkManager-Services": "org.freedesktop.NetworkManager.openvpn"
}
