{
    "KPlugin": {
        "Authors": [
            {
                "Email": "jgrulich@redhat.com",
                "Name": "Jan Grulich",
                "Name[ar]": "Jan Grulich",
                "Name[az]": "Jan Grulich",
                "Name[bg]": "Jan Grulich",
                "Name[ca@valencia]": "Jan Grulich",
                "Name[ca]": "Jan Grulich",
                "Name[cs]": "Jan Grulich",
                "Name[de]": "Jan Grulich",
                "Name[en_GB]": "Jan Grulich",
                "Name[es]": "Jan Grulich",
                "Name[eu]": "Jan Grulich",
                "Name[fi]": "Jan Grulich",
                "Name[fr]": "Jan Grulich",
                "Name[gl]": "Jan Grulich",
                "Name[hu]": "Jan Grulich",
                "Name[ia]": "Jan Grulich",
                "Name[is]": "Jan Grulich",
                "Name[it]": "Jan Grulich",
                "Name[ka]": "Jan Grulich",
                "Name[ko]": "Jan Grulich",
                "Name[lt]": "Jan Grulich",
                "Name[nl]": "Jan Grulich",
                "Name[nn]": "Jan Gruhlich",
                "Name[pl]": "Jan Grulich",
                "Name[pt]": "Jan Grulich",
                "Name[pt_BR]": "Jan Grulich",
                "Name[ro]": "Jan Grulich",
                "Name[ru]": "Jan Grulich",
                "Name[sk]": "Jan Grulich",
                "Name[sl]": "Jan Grulich",
                "Name[sv]": "Jan Grulich",
                "Name[ta]": "ஜான் குரூலிச்",
                "Name[tr]": "Jan Grulich",
                "Name[uk]": "Jan Grulich",
                "Name[x-test]": "xxJan Grulichxx",
                "Name[zh_CN]": "Jan Grulich",
                "Name[zh_TW]": "Jan Grulich"
            }
        ],
        "Category": "VPNService",
        "Description": "Compatible with PAN GlobalProtect SSL VPN",
        "Description[ar]": "متوافق مع PAN GlobalProtect SSL VPN",
        "Description[az]": "PAN GlobalProtect  ilə uyğun SSL VPN",
        "Description[bg]": "Съвместим с PAN GlobalProtect SSL VPN",
        "Description[ca@valencia]": "Compatible amb la PAN VPN SSL de GlobalProtect",
        "Description[ca]": "Compatible amb la PAN VPN SSL de GlobalProtect",
        "Description[cs]": "Kompatibilní s PAN GlobalProtect SSL VPN",
        "Description[de]": "Mit PAN-GlobalProtect-SSL-VPN kompatibel",
        "Description[en_GB]": "Compatible with PAN GlobalProtect SSL VPN",
        "Description[es]": "Compatible con VPN SSL de PAN GlobalProtect",
        "Description[eu]": "PAN GlobalProtect SSL VPN-rekin bateragarria",
        "Description[fi]": "Yhteensopiva PAN GlobalProtectin SSL-VPN:n kanssa",
        "Description[fr]": "Compatible avec les VPN « SSL GlobalProtect PAN »",
        "Description[gl]": "Compatíbel con servidores VPN por SSL de PAN GlobalProtect.",
        "Description[hu]": "Kompatibilis a PAN GlobalProtect SSL VPN-nel",
        "Description[ia]": "Compatibile con PAN GlobalProtect SSL VPN",
        "Description[is]": "Samhæft við PAN GlobalProtect SSL VPN",
        "Description[it]": "Compatibile con PAN Global Protect SSL VPN",
        "Description[ka]": "PAN GlobalProtect SSL VPN-თან თავსებადი",
        "Description[ko]": "PAN GlobalProtect SSL VPN과 호환됨",
        "Description[lt]": "Suderinamas su PAN GlobalProtect SSL VPN",
        "Description[nl]": "Compatibel met PAN GlobalProtect SSL VPN",
        "Description[nn]": "Kompatibel med PAN GlobalProtect SSL VPN",
        "Description[pl]": "VPN SSL zgodny z globalną ochroną PAN",
        "Description[pt]": "Compatível com a VPN PAN Protecção Global por SSL",
        "Description[pt_BR]": "Compatível com a VPN PAN Proteção Global por SSL",
        "Description[ru]": "Совместимая с PAN GlobalProtect VPN с SSL",
        "Description[sk]": "Kompatibilné s CPAN GlobalProtect SSL VPN",
        "Description[sl]": "Združljivo s PAN GlobalProtect SSL VPN",
        "Description[sv]": "Kompatibel med PAN GlobalProtect SSL VPN",
        "Description[tr]": "PAN GlobalProtect SSL VPN ile uyumlu",
        "Description[uk]": "Сумісний із VPN SSL PAN GlobalProtect",
        "Description[x-test]": "xxCompatible with PAN GlobalProtect SSL VPNxx",
        "Description[zh_CN]": "兼容 PAN GlobalProtect SSL VPN",
        "Description[zh_TW]": "與 PAN GlobalProtect SSL VPN 相容",
        "EnabledByDefault": false,
        "Icon": "",
        "Id": "plasmanetworkmanagement_openconnect_globalprotectui",
        "License": "GPL",
        "Name": "PAN Global Protect (openconnect)",
        "Name[ar]": "خادم PAN Global Protect بواسطة (openconnect)",
        "Name[az]": "PAN Global Protect (openconnect)",
        "Name[bg]": "PAN Global Protect (openconnect)",
        "Name[ca@valencia]": "PAN de Global Protect (openconnect)",
        "Name[ca]": "PAN de Global Protect (openconnect)",
        "Name[cs]": "PAN Global Protect (openconnect)",
        "Name[da]": "PAN Global Protect (openconnect)",
        "Name[de]": "PAN Global Protect (openconnect)",
        "Name[en_GB]": "PAN Global Protect (openconnect)",
        "Name[es]": "PAN GlobalProtect (openconnect)",
        "Name[et]": "PAN Global Protect (openconnect)",
        "Name[eu]": "PAN Global Protect (openconnect)",
        "Name[fi]": "PAN Global Protect (openconnect)",
        "Name[fr]": "PAN Global Protect (openconnect)",
        "Name[gl]": "PAN Global Protect (openconnect)",
        "Name[hu]": "PAN Global Protect (openconnect)",
        "Name[ia]": "PAN Global Protect (openconnect)",
        "Name[id]": "PAN Global Protect (openconnect)",
        "Name[is]": "PAN Global Protect (openconnect)",
        "Name[it]": "PAN Global Protect (openconnect)",
        "Name[ka]": "PAN Global Protect (openconnect)",
        "Name[ko]": "PAN Global Protect(openconnect)",
        "Name[lt]": "PAN Global Protect (openconnect)",
        "Name[ml]": "പാൻ ആഗോള സംരക്ഷണം (ഓപ്പൺകണക്റ്റ്)",
        "Name[nl]": "PAN Global Protect (openconnect)",
        "Name[nn]": "PAN Global Protect (OpenConnect)",
        "Name[pl]": "Globalna ochrona PAN (openconnect)",
        "Name[pt]": "Protecção Global do PAN (openconnect)",
        "Name[pt_BR]": "Proteção Global do PAN (openconnect)",
        "Name[ru]": "PAN GlobalProtect (openconnect)",
        "Name[sk]": "PAN Global Protect (openconnect)",
        "Name[sl]": "PAN Global Protect (openconnect)",
        "Name[sv]": "PAN Global Protect (openconnect)",
        "Name[tr]": "PAN küresel koruma (openconnect)",
        "Name[uk]": "Загальний захист PAN (openconnect)",
        "Name[x-test]": "xxPAN Global Protect (openconnect)xx",
        "Name[zh_CN]": "PAN Global Protect (openconnect)",
        "Name[zh_TW]": "PAN Global Protect 全域保護 (openconnect)",
        "Version": "0.1",
        "Website": ""
    },
    "X-NetworkManager-Services": "org.freedesktop.NetworkManager.openconnect",
    "X-NetworkManager-Services-Subtype": "gp"
}
